…
write.csv(cluster_top_genes, file = "cluster_condition_top_genes.csv", row.names = FALSE)
  
ggsave(
    filename = "volcano_per_cluster_condition.png",
    plot = cluster_volcano_grid,
    width = 15,
    height = max(4, ceiling(length(cluster_volcano_plots) / 2) * 4),
    dpi = 300,
    bg = "white"
  )
}
```

    ## Top expressed DE genes per cluster (Mutant vs Control):
    ## # A tibble: 30 × 2
    ##    cluster gene    
    ##    <fct>   <chr>   
    ##  1 0       Ucp1    
    ##  2 0       Tmsb4x  
    ##  3 0       Fabp4   
    ##  4 0       Atp5e   
    ##  5 0       Acta1   
    ##  6 1       Fabp4   
    ##  7 1       Ucp1    
    ##  8 1       Acta1   
    ##  9 1       Myh2    
    ## 10 1       Hist1h1c
    ## # ℹ 20 more rows
…
